%YAML 1.1
%TAG !u! tag:unity3d.com,2011:
--- !u!1001 &5349046111496087360
PrefabInstance:
  m_ObjectHideFlags: 0
  serializedVersion: 2
  m_Modification:
    serializedVersion: 3
    m_TransformParent: {fileID: 0}
    m_Modifications:
    - target: {fileID: -8679921383154817045, guid: 8b961cc0135f1ed40a05ff1bc6db5f7e, type: 3}
      propertyPath: m_LocalPosition.x
      value: 0
      objectReference: {fileID: 0}
    - target: {fileID: -8679921383154817045, guid: 8b961cc0135f1ed40a05ff1bc6db5f7e, type: 3}
      propertyPath: m_LocalPosition.y
      value: 0
      objectReference: {fileID: 0}
    - target: {fileID: -8679921383154817045, guid: 8b961cc0135f1ed40a05ff1bc6db5f7e, type: 3}
      propertyPath: m_LocalPosition.z
      value: 0
      objectReference: {fileID: 0}
    - target: {fileID: -8679921383154817045, guid: 8b961cc0135f1ed40a05ff1bc6db5f7e, type: 3}
      propertyPath: m_LocalRotation.w
      value: 1
      objectReference: {fileID: 0}
    - target: {fileID: -8679921383154817045, guid: 8b961cc0135f1ed40a05ff1bc6db5f7e, type: 3}
      propertyPath: m_LocalRotation.x
      value: 0
      objectReference: {fileID: 0}
    - target: {fileID: -8679921383154817045, guid: 8b961cc0135f1ed40a05ff1bc6db5f7e, type: 3}
      propertyPath: m_LocalRotation.y
      value: -0
      objectReference: {fileID: 0}
    - target: {fileID: -8679921383154817045, guid: 8b961cc0135f1ed40a05ff1bc6db5f7e, type: 3}
      propertyPath: m_LocalRotation.z
      value: -0
      objectReference: {fileID: 0}
    - target: {fileID: -8679921383154817045, guid: 8b961cc0135f1ed40a05ff1bc6db5f7e, type: 3}
      propertyPath: m_LocalEulerAnglesHint.x
      value: 0
      objectReference: {fileID: 0}
    - target: {fileID: -8679921383154817045, guid: 8b961cc0135f1ed40a05ff1bc6db5f7e, type: 3}
      propertyPath: m_LocalEulerAnglesHint.y
      value: 0
      objectReference: {fileID: 0}
    - target: {fileID: -8679921383154817045, guid: 8b961cc0135f1ed40a05ff1bc6db5f7e, type: 3}
      propertyPath: m_LocalEulerAnglesHint.z
      value: 0
      objectReference: {fileID: 0}
    - target: {fileID: 919132149155446097, guid: 8b961cc0135f1ed40a05ff1bc6db5f7e, type: 3}
      propertyPath: m_Name
      value: Celestial Cyclone
      objectReference: {fileID: 0}
    - target: {fileID: 2277461188652232295, guid: 8b961cc0135f1ed40a05ff1bc6db5f7e, type: 3}
      propertyPath: m_Materials.Array.data[0]
      value: 
      objectReference: {fileID: 2100000, guid: d38cb468fcbf7c440b2f82a8fb306a07, type: 2}
    m_RemovedComponents: []
    m_RemovedGameObjects: []
    m_AddedGameObjects: []
    m_AddedComponents: []
  m_SourcePrefab: {fileID: 100100000, guid: 8b961cc0135f1ed40a05ff1bc6db5f7e, type: 3}
