%YAML 1.1
%TAG !u! tag:unity3d.com,2011:
--- !u!114 &11400000
MonoBehaviour:
  m_ObjectHideFlags: 0
  m_CorrespondingSourceObject: {fileID: 0}
  m_PrefabInstance: {fileID: 0}
  m_PrefabAsset: {fileID: 0}
  m_GameObject: {fileID: 0}
  m_Enabled: 1
  m_EditorHideFlags: 0
  m_Script: {fileID: 11500000, guid: 767c2ef340ce4679b01ad3e3fbfe964f, type: 3}
  m_Name: Celestial Cyclone
  m_EditorClassIdentifier: 
  isOwned: 0
  id: 1
  name: Celestial Cyclone
  description: "S\xFAng tr\u01B0\u1EDDng linh ho\u1EA1t, c\xF3 th\u1EC3 s\u1EED d\u1EE5ng
    \u1EDF nhi\u1EC1u t\xECnh hu\u1ED1ng chi\u1EBFn \u0111\u1EA5u kh\xE1c nhau v\u1EDBi
    t\u1ED1c \u0111\u1ED9 b\u1EAFn cao."
  rank: 2
  icon: {fileID: 21300000, guid: f177104e16bbc1343aeeff0cc00d5d41, type: 3}
  prefab: {fileID: 6451043037471608190, guid: bcc1768df04c36445a4d771e1ea8e971, type: 3}
  damage: 8
  magazineSize: 30
  reloadTime: 1.7
  fireRate: 1.3
  recoil: 1.7
  falloffRange: 150
