%YAML 1.1
%TAG !u! tag:unity3d.com,2011:
--- !u!114 &11400000
MonoBehaviour:
  m_ObjectHideFlags: 0
  m_CorrespondingSourceObject: {fileID: 0}
  m_PrefabInstance: {fileID: 0}
  m_PrefabAsset: {fileID: 0}
  m_GameObject: {fileID: 0}
  m_Enabled: 1
  m_EditorHideFlags: 0
  m_Script: {fileID: 11500000, guid: 767c2ef340ce4679b01ad3e3fbfe964f, type: 3}
  m_Name: Mirage Pulse
  m_EditorClassIdentifier: 
  isOwned: 0
  id: 3
  name: Mirage Pulse
  description: "S\xFAng tr\u01B0\u1EDDng v\u1EDBi kh\u1EA3 n\u0103ng b\u1EAFn burst,
    ph\xF9 h\u1EE3p cho nh\u1EEFng k\u1EBB s\xE1t th\u1EE7 t\u1EA7m xa."
  rank: 2
  icon: {fileID: 21300000, guid: 9ad7fbe61079e104693507c75e266160, type: 3}
  prefab: {fileID: 751910565792529831, guid: 2997d396dafcb294c91b408380467ebe, type: 3}
  damage: 8
  magazineSize: 30
  reloadTime: 1.5
  fireRate: 1.6
  recoil: 1.2
  falloffRange: 125
