%YAML 1.1
%TAG !u! tag:unity3d.com,2011:
--- !u!114 &11400000
MonoBehaviour:
  m_ObjectHideFlags: 0
  m_CorrespondingSourceObject: {fileID: 0}
  m_PrefabInstance: {fileID: 0}
  m_PrefabAsset: {fileID: 0}
  m_GameObject: {fileID: 0}
  m_Enabled: 1
  m_EditorHideFlags: 0
  m_Script: {fileID: 11500000, guid: 767c2ef340ce4679b01ad3e3fbfe964f, type: 3}
  m_Name: Nova Repeater
  m_EditorClassIdentifier: 
  isOwned: 0
  id: 4
  name: Nova Repeater
  description: "S\xFAng tr\u01B0\u1EDDng nh\u1EB9 v\u1EDBi recoil th\u1EA5p, l\xE0
    s\u1EF1 l\u1EF1a ch\u1ECDn c\u1EE7a nh\u1EEFng ng\u01B0\u1EDDi ch\u01A1i th\xEDch
    phong c\xE1ch ch\u01A1i linh ho\u1EA1t."
  rank: 7
  icon: {fileID: 21300000, guid: df3f2f2b5bec3d14395c38cf589875f1, type: 3}
  prefab: {fileID: 858834365526546600, guid: 176e1a684c0ab14468612cab3d369dfc, type: 3}
  damage: 16
  magazineSize: 40
  reloadTime: 1.4
  fireRate: 1.4
  recoil: 1
  falloffRange: 200
