%YAML 1.1
%TAG !u! tag:unity3d.com,2011:
--- !u!114 &11400000
MonoBehaviour:
  m_ObjectHideFlags: 0
  m_CorrespondingSourceObject: {fileID: 0}
  m_PrefabInstance: {fileID: 0}
  m_PrefabAsset: {fileID: 0}
  m_GameObject: {fileID: 0}
  m_Enabled: 1
  m_EditorHideFlags: 0
  m_Script: {fileID: 11500000, guid: 2c0bb0fd999041dbb72289aa5ed77fbf, type: 3}
  m_Name: Kiran Garden
  m_EditorClassIdentifier: 
  missonId: 4
  image: {fileID: 21300000, guid: ef81b694062b83f4485cdad8c890e1e6, type: 3}
  missonName: Kiran Garden
  isLocked: 0
  missonDescription: "Kiran Garden l\xE0 m\u1ED9t h\xE0nh tin c\u1EB1n c\u1ED7i \u0111\xE3
    b\u1ECB Iron Mind chi\u1EBFm \u0111\xF3ng v\xEC n\u01A1i \u0111\xE2y c\xF3 t\xEDnh
    ch\u1EA5t \u0111\u1EA5t \u0111ai ph\xF9 h\u1EE3p \u0111\u1EC3 nu\xF4i Kiran nh\xE2n
    t\u1EA1o.Kiran Garden c\xF3 \u0111\u1ECBa h\xECnh r\u1ED9ng l\u1EDBn v\u1EDBi
    nhi\u1EC1u c\xF4ng tr\xECnh v\xE0 t\xE0u chi\u1EBFn c\u1EE7a Iron Mind."
  quest1Description: Finish the mission
  isCompleteQuest1: 1
  quest2Description: Finish under 5 minutes
  isCompleteQuest2: 0
  quest3Description: 'Destroy the giant

    Kiran Crystal'
  isCompleteQuest3: 0
  isCompleteMisson: 0
