%YAML 1.1
%TAG !u! tag:unity3d.com,2011:
--- !u!1001 &6221411522507924281
PrefabInstance:
  m_ObjectHideFlags: 0
  serializedVersion: 2
  m_Modification:
    serializedVersion: 3
    m_TransformParent: {fileID: 0}
    m_Modifications:
    - target: {fileID: -8679921383154817045, guid: 302bc28fa570b58439e8e9151e39e446, type: 3}
      propertyPath: m_LocalPosition.x
      value: 0.068128735
      objectReference: {fileID: 0}
    - target: {fileID: -8679921383154817045, guid: 302bc28fa570b58439e8e9151e39e446, type: 3}
      propertyPath: m_LocalPosition.y
      value: 0.7635592
      objectReference: {fileID: 0}
    - target: {fileID: -8679921383154817045, guid: 302bc28fa570b58439e8e9151e39e446, type: 3}
      propertyPath: m_LocalPosition.z
      value: 10.038168
      objectReference: {fileID: 0}
    - target: {fileID: -8679921383154817045, guid: 302bc28fa570b58439e8e9151e39e446, type: 3}
      propertyPath: m_LocalRotation.w
      value: 1
      objectReference: {fileID: 0}
    - target: {fileID: -8679921383154817045, guid: 302bc28fa570b58439e8e9151e39e446, type: 3}
      propertyPath: m_LocalRotation.x
      value: 0.00000008146034
      objectReference: {fileID: 0}
    - target: {fileID: -8679921383154817045, guid: 302bc28fa570b58439e8e9151e39e446, type: 3}
      propertyPath: m_LocalRotation.y
      value: -0
      objectReference: {fileID: 0}
    - target: {fileID: -8679921383154817045, guid: 302bc28fa570b58439e8e9151e39e446, type: 3}
      propertyPath: m_LocalRotation.z
      value: -0
      objectReference: {fileID: 0}
    - target: {fileID: -8679921383154817045, guid: 302bc28fa570b58439e8e9151e39e446, type: 3}
      propertyPath: m_LocalEulerAnglesHint.x
      value: 0
      objectReference: {fileID: 0}
    - target: {fileID: -8679921383154817045, guid: 302bc28fa570b58439e8e9151e39e446, type: 3}
      propertyPath: m_LocalEulerAnglesHint.y
      value: 0
      objectReference: {fileID: 0}
    - target: {fileID: -8679921383154817045, guid: 302bc28fa570b58439e8e9151e39e446, type: 3}
      propertyPath: m_LocalEulerAnglesHint.z
      value: 0
      objectReference: {fileID: 0}
    - target: {fileID: -7511558181221131132, guid: 302bc28fa570b58439e8e9151e39e446, type: 3}
      propertyPath: m_Materials.Array.data[0]
      value: 
      objectReference: {fileID: 2100000, guid: 6ea9f8ed958d90f4d808ad522b4d819a, type: 2}
    - target: {fileID: 919132149155446097, guid: 302bc28fa570b58439e8e9151e39e446, type: 3}
      propertyPath: m_Name
      value: Aether Blade
      objectReference: {fileID: 0}
    m_RemovedComponents: []
    m_RemovedGameObjects: []
    m_AddedGameObjects: []
    m_AddedComponents: []
  m_SourcePrefab: {fileID: 100100000, guid: 302bc28fa570b58439e8e9151e39e446, type: 3}
