%YAML 1.1
%TAG !u! tag:unity3d.com,2011:
--- !u!114 &11400000
MonoBehaviour:
  m_ObjectHideFlags: 0
  m_CorrespondingSourceObject: {fileID: 0}
  m_PrefabInstance: {fileID: 0}
  m_PrefabAsset: {fileID: 0}
  m_GameObject: {fileID: 0}
  m_Enabled: 1
  m_EditorHideFlags: 0
  m_Script: {fileID: 11500000, guid: 45e1e86d2c0c41bbae69841eedacaf77, type: 3}
  m_Name: Luminous Edge
  m_EditorClassIdentifier: 
  isOwned: 0
  id: 4
  name: Luminous Edge
  description: "M\u1ED9t thanh ki\u1EBFm chi\u1EBFn binh v\u1EDBi l\u01B0\u1EE1i
    dao l\u1EDBn v\xE0 hilt m\u1EA1nh m\u1EBD, ph\u1EA3n \xE1nh tinh th\u1EA7n chi\u1EBFn
    \u0111\u1EA5u v\xE0 quy\u1EBFt t\xE2m."
  rank: 3
  icon: {fileID: 21300000, guid: c7e27a739fc7d094296203711c09749a, type: 3}
  prefab: {fileID: 326367152503983252, guid: 324ff5bad90a7514f9c2b52edae67153, type: 3}
  damage: 17
  durability: 225
  attackSpeed: 1.3
  weight: 7
  length: 1.4
  range: 1.6
