%YAML 1.1
%TAG !u! tag:unity3d.com,2011:
--- !u!114 &11400000
MonoBehaviour:
  m_ObjectHideFlags: 0
  m_CorrespondingSourceObject: {fileID: 0}
  m_PrefabInstance: {fileID: 0}
  m_PrefabAsset: {fileID: 0}
  m_GameObject: {fileID: 0}
  m_Enabled: 1
  m_EditorHideFlags: 0
  m_Script: {fileID: 11500000, guid: 45e1e86d2c0c41bbae69841eedacaf77, type: 3}
  m_Name: Nebura Saber
  m_EditorClassIdentifier: 
  isOwned: 0
  id: 6
  name: Nebura Saber
  description: "Ki\u1EBFm ng\u1ECDc l\u1EE5c b\u1EA3o v\u1EDBi tay c\u1EA7m l\xE0m
    t\u1EEB g\u1ED7 qu\xFD hi\u1EBFm, ph\u1EA3n \xE1nh s\u1EF1 qu\xFD ph\xE1i v\xE0
    truy\u1EC1n th\u1ED1ng."
  rank: 4
  icon: {fileID: 21300000, guid: c4adbd42930c9c247aaa52829f333cbd, type: 3}
  prefab: {fileID: 5447127843970486696, guid: a28f60dc2a4521249a79f45f0e83ae4e, type: 3}
  damage: 20
  durability: 270
  attackSpeed: 1.5
  weight: 9
  length: 1.5
  range: 1.3
