%YAML 1.1
%TAG !u! tag:unity3d.com,2011:
--- !u!114 &11400000
MonoBehaviour:
  m_ObjectHideFlags: 0
  m_CorrespondingSourceObject: {fileID: 0}
  m_PrefabInstance: {fileID: 0}
  m_PrefabAsset: {fileID: 0}
  m_GameObject: {fileID: 0}
  m_Enabled: 1
  m_EditorHideFlags: 0
  m_Script: {fileID: 11500000, guid: 45e1e86d2c0c41bbae69841eedacaf77, type: 3}
  m_Name: Starfire Sword
  m_EditorClassIdentifier: 
  isOwned: 0
  id: 10
  name: Strafire Sword
  description: "M\u1ED9t thanh ki\u1EBFm l\u1EA1 k\u1EF3 v\u1EDBi l\u01B0\u1EE1i
    dao \u0111\u01B0\u1EE3c l\xE0m t\u1EEB kho\xE1ng ch\u1EA5t \u0111\u1EB7c bi\u1EC7t,
    ph\xE1t s\xE1ng theo \xE1nh s\xE1ng m\u1EB7t tr\u1EDDi v\xE0 c\xF3 kh\u1EA3 n\u0103ng
    l\xE0m m\xE1t m\xF4i tr\u01B0\u1EDDng xung quanh."
  rank: 7
  icon: {fileID: 21300000, guid: 112bf4c97e00b764fb9b321d2ae75fba, type: 3}
  prefab: {fileID: 8158795511238466602, guid: 6fea70af6bc9d9c4a9a162a8b00c1d4a, type: 3}
  damage: 27
  durability: 310
  attackSpeed: 1.9
  weight: 5
  length: 1.6
  range: 2.6
