%YAML 1.1
%TAG !u! tag:unity3d.com,2011:
--- !u!114 &11400000
MonoBehaviour:
  m_ObjectHideFlags: 0
  m_CorrespondingSourceObject: {fileID: 0}
  m_PrefabInstance: {fileID: 0}
  m_PrefabAsset: {fileID: 0}
  m_GameObject: {fileID: 0}
  m_Enabled: 1
  m_EditorHideFlags: 0
  m_Script: {fileID: 11500000, guid: 45e1e86d2c0c41bbae69841eedacaf77, type: 3}
  m_Name: Void Spark Saber
  m_EditorClassIdentifier: 
  isOwned: 0
  id: 12
  name: Void Spark Saber
  description: "M\u1ED9t thanh ki\u1EBFm c\u1ED5 x\u01B0a v\u1EDBi l\u01B0\u1EE1i
    dao c\xF3 kh\u1EA3 n\u0103ng thay \u0111\u1ED5i h\xECnh d\u1EA1ng, t\u1EEB thanh
    nh\u1ECDn \u0111\u1EBFn l\u01B0\u1EE1i c\xF2ng, l\xE0 bi\u1EC3u t\u01B0\u1EE3ng
    c\u1EE7a s\u1EF1 linh ho\u1EA1t v\xE0 \u0111a d\u1EA1ng trong chi\u1EBFn \u0111\u1EA5u."
  rank: 9
  icon: {fileID: 21300000, guid: c67c8140d64b3f540912322f3b1a997e, type: 3}
  prefab: {fileID: 8196284760012829726, guid: d22d8e85675614949839bdc105074d1a, type: 3}
  damage: 32
  durability: 330
  attackSpeed: 2.2
  weight: 16
  length: 1.4
  range: 2.9
